%YAML 1.1
%TAG !u! tag:unity3d.com,2011:
--- !u!74 &7400000
AnimationClip:
  m_ObjectHideFlags: 0
  m_CorrespondingSourceObject: {fileID: 0}
  m_PrefabInstance: {fileID: 0}
  m_PrefabAsset: {fileID: 0}
  m_Name: Skill1
  serializedVersion: 6
  m_Legacy: 0
  m_Compressed: 0
  m_UseHighQualityCurve: 1
  m_RotationCurves: []
  m_CompressedRotationCurves: []
  m_EulerCurves: []
  m_PositionCurves: []
  m_ScaleCurves: []
  m_FloatCurves: []
  m_PPtrCurves:
  - curve:
    - time: 0
      value: {fileID: 21300000, guid: 122392de6a67ee2479ee4ffaead745fe, type: 3}
    - time: 0.083333336
      value: {fileID: 21300000, guid: 9a4947d205703234888440838ee83dff, type: 3}
    - time: 0.16666667
      value: {fileID: 21300000, guid: f36c9927f8c7f49429d25823f2255495, type: 3}
    - time: 0.25
      value: {fileID: 21300000, guid: fcb2532e3d1adb042abcaaedc65ad06a, type: 3}
    - time: 0.33333334
      value: {fileID: 21300000, guid: c6162c3c0b154e243be11a54d1d0cd5e, type: 3}
    - time: 0.41666666
      value: {fileID: 21300000, guid: e2502aaacdf0b1746b2bce1dfdfb333e, type: 3}
    - time: 0.5
      value: {fileID: 21300000, guid: dcd1e08c368cce544bdc8a2ff2ca3b6b, type: 3}
    - time: 0.5833333
      value: {fileID: 21300000, guid: 72e3570046a0a4145ac258647d721c4b, type: 3}
    - time: 0.6666667
      value: {fileID: 21300000, guid: c0d7512b36b5cd2418bfff7ec7f2edb0, type: 3}
    - time: 0.75
      value: {fileID: 21300000, guid: f673175ac88cc894a84fb212f919ff6b, type: 3}
    - time: 0.8333333
      value: {fileID: 21300000, guid: b37f6f41483d5c84a9227617b4874502, type: 3}
    attribute: m_Sprite
    path: 
    classID: 212
    script: {fileID: 0}
  m_SampleRate: 12
  m_WrapMode: 0
  m_Bounds:
    m_Center: {x: 0, y: 0, z: 0}
    m_Extent: {x: 0, y: 0, z: 0}
  m_ClipBindingConstant:
    genericBindings:
    - serializedVersion: 2
      path: 0
      attribute: 0
      script: {fileID: 0}
      typeID: 212
      customType: 23
      isPPtrCurve: 1
    pptrCurveMapping:
    - {fileID: 21300000, guid: 122392de6a67ee2479ee4ffaead745fe, type: 3}
    - {fileID: 21300000, guid: 9a4947d205703234888440838ee83dff, type: 3}
    - {fileID: 21300000, guid: f36c9927f8c7f49429d25823f2255495, type: 3}
    - {fileID: 21300000, guid: fcb2532e3d1adb042abcaaedc65ad06a, type: 3}
    - {fileID: 21300000, guid: c6162c3c0b154e243be11a54d1d0cd5e, type: 3}
    - {fileID: 21300000, guid: e2502aaacdf0b1746b2bce1dfdfb333e, type: 3}
    - {fileID: 21300000, guid: dcd1e08c368cce544bdc8a2ff2ca3b6b, type: 3}
    - {fileID: 21300000, guid: 72e3570046a0a4145ac258647d721c4b, type: 3}
    - {fileID: 21300000, guid: c0d7512b36b5cd2418bfff7ec7f2edb0, type: 3}
    - {fileID: 21300000, guid: f673175ac88cc894a84fb212f919ff6b, type: 3}
    - {fileID: 21300000, guid: b37f6f41483d5c84a9227617b4874502, type: 3}
  m_AnimationClipSettings:
    serializedVersion: 2
    m_AdditiveReferencePoseClip: {fileID: 0}
    m_AdditiveReferencePoseTime: 0
    m_StartTime: 0
    m_StopTime: 0.9166666
    m_OrientationOffsetY: 0
    m_Level: 0
    m_CycleOffset: 0
    m_HasAdditiveReferencePose: 0
    m_LoopTime: 1
    m_LoopBlend: 0
    m_LoopBlendOrientation: 0
    m_LoopBlendPositionY: 0
    m_LoopBlendPositionXZ: 0
    m_KeepOriginalOrientation: 0
    m_KeepOriginalPositionY: 1
    m_KeepOriginalPositionXZ: 0
    m_HeightFromFeet: 0
    m_Mirror: 0
  m_EditorCurves: []
  m_EulerEditorCurves: []
  m_HasGenericRootTransform: 0
  m_HasMotionFloatCurves: 0
  m_Events: []
