%YAML 1.1
%TAG !u! tag:unity3d.com,2011:
--- !u!1 &1442862307878918204
GameObject:
  m_ObjectHideFlags: 0
  m_CorrespondingSourceObject: {fileID: 0}
  m_PrefabInstance: {fileID: 0}
  m_PrefabAsset: {fileID: 0}
  serializedVersion: 6
  m_Component:
  - component: {fileID: 5267913103256976142}
  - component: {fileID: 3422624745951595385}
  - component: {fileID: 574501255144278947}
  m_Layer: 0
  m_Name: Layer1
  m_TagString: Untagged
  m_Icon: {fileID: 0}
  m_NavMeshLayer: 0
  m_StaticEditorFlags: 0
  m_IsActive: 1
--- !u!4 &5267913103256976142
Transform:
  m_ObjectHideFlags: 0
  m_CorrespondingSourceObject: {fileID: 0}
  m_PrefabInstance: {fileID: 0}
  m_PrefabAsset: {fileID: 0}
  m_GameObject: {fileID: 1442862307878918204}
  m_LocalRotation: {x: -0, y: -0, z: -0, w: 1}
  m_LocalPosition: {x: 0, y: 0, z: 0}
  m_LocalScale: {x: 1, y: 1, z: 1}
  m_ConstrainProportionsScale: 0
  m_Children: []
  m_Father: {fileID: 1634050508032843740}
  m_RootOrder: 0
  m_LocalEulerAnglesHint: {x: 0, y: 0, z: 0}
--- !u!1839735485 &3422624745951595385
Tilemap:
  m_ObjectHideFlags: 0
  m_CorrespondingSourceObject: {fileID: 0}
  m_PrefabInstance: {fileID: 0}
  m_PrefabAsset: {fileID: 0}
  m_GameObject: {fileID: 1442862307878918204}
  m_Enabled: 1
  m_Tiles:
  - first: {x: 3, y: -10, z: 0}
    second:
      serializedVersion: 2
      m_TileIndex: 123
      m_TileSpriteIndex: 2
      m_TileMatrixIndex: 0
      m_TileColorIndex: 0
      m_TileObjectToInstantiateIndex: 65535
      dummyAlignment: 0
      m_AllTileFlags: 1073741825
  - first: {x: 4, y: -10, z: 0}
    second:
      serializedVersion: 2
      m_TileIndex: 122
      m_TileSpriteIndex: 1
      m_TileMatrixIndex: 0
      m_TileColorIndex: 0
      m_TileObjectToInstantiateIndex: 65535
      dummyAlignment: 0
      m_AllTileFlags: 1073741825
  - first: {x: 3, y: -9, z: 0}
    second:
      serializedVersion: 2
      m_TileIndex: 126
      m_TileSpriteIndex: 5
      m_TileMatrixIndex: 0
      m_TileColorIndex: 0
      m_TileObjectToInstantiateIndex: 65535
      dummyAlignment: 0
      m_AllTileFlags: 1073741825
  - first: {x: 4, y: -9, z: 0}
    second:
      serializedVersion: 2
      m_TileIndex: 125
      m_TileSpriteIndex: 4
      m_TileMatrixIndex: 0
      m_TileColorIndex: 0
      m_TileObjectToInstantiateIndex: 65535
      dummyAlignment: 0
      m_AllTileFlags: 1073741825
  - first: {x: 5, y: -9, z: 0}
    second:
      serializedVersion: 2
      m_TileIndex: 124
      m_TileSpriteIndex: 3
      m_TileMatrixIndex: 0
      m_TileColorIndex: 0
      m_TileObjectToInstantiateIndex: 65535
      dummyAlignment: 0
      m_AllTileFlags: 1073741825
  - first: {x: 3, y: -8, z: 0}
    second:
      serializedVersion: 2
      m_TileIndex: 129
      m_TileSpriteIndex: 8
      m_TileMatrixIndex: 0
      m_TileColorIndex: 0
      m_TileObjectToInstantiateIndex: 65535
      dummyAlignment: 0
      m_AllTileFlags: 1073741825
  - first: {x: 4, y: -8, z: 0}
    second:
      serializedVersion: 2
      m_TileIndex: 128
      m_TileSpriteIndex: 7
      m_TileMatrixIndex: 0
      m_TileColorIndex: 0
      m_TileObjectToInstantiateIndex: 65535
      dummyAlignment: 0
      m_AllTileFlags: 1073741825
  - first: {x: 5, y: -8, z: 0}
    second:
      serializedVersion: 2
      m_TileIndex: 127
      m_TileSpriteIndex: 6
      m_TileMatrixIndex: 0
      m_TileColorIndex: 0
      m_TileObjectToInstantiateIndex: 65535
      dummyAlignment: 0
      m_AllTileFlags: 1073741825
  - first: {x: -2, y: -5, z: 0}
    second:
      serializedVersion: 2
      m_TileIndex: 51
      m_TileSpriteIndex: 129
      m_TileMatrixIndex: 0
      m_TileColorIndex: 0
      m_TileObjectToInstantiateIndex: 65535
      dummyAlignment: 0
      m_AllTileFlags: 1073741825
  - first: {x: -1, y: -5, z: 0}
    second:
      serializedVersion: 2
      m_TileIndex: 52
      m_TileSpriteIndex: 128
      m_TileMatrixIndex: 0
      m_TileColorIndex: 0
      m_TileObjectToInstantiateIndex: 65535
      dummyAlignment: 0
      m_AllTileFlags: 1073741825
  - first: {x: 0, y: -5, z: 0}
    second:
      serializedVersion: 2
      m_TileIndex: 53
      m_TileSpriteIndex: 126
      m_TileMatrixIndex: 0
      m_TileColorIndex: 0
      m_TileObjectToInstantiateIndex: 65535
      dummyAlignment: 0
      m_AllTileFlags: 1073741825
  - first: {x: 1, y: -5, z: 0}
    second:
      serializedVersion: 2
      m_TileIndex: 54
      m_TileSpriteIndex: 125
      m_TileMatrixIndex: 0
      m_TileColorIndex: 0
      m_TileObjectToInstantiateIndex: 65535
      dummyAlignment: 0
      m_AllTileFlags: 1073741825
  - first: {x: 5, y: -5, z: 0}
    second:
      serializedVersion: 2
      m_TileIndex: 119
      m_TileSpriteIndex: 127
      m_TileMatrixIndex: 0
      m_TileColorIndex: 0
      m_TileObjectToInstantiateIndex: 65535
      dummyAlignment: 0
      m_AllTileFlags: 1073741825
  - first: {x: -2, y: -4, z: 0}
    second:
      serializedVersion: 2
      m_TileIndex: 49
      m_TileSpriteIndex: 123
      m_TileMatrixIndex: 0
      m_TileColorIndex: 0
      m_TileObjectToInstantiateIndex: 65535
      dummyAlignment: 0
      m_AllTileFlags: 1073741825
  - first: {x: -1, y: -4, z: 0}
    second:
      serializedVersion: 2
      m_TileIndex: 50
      m_TileSpriteIndex: 63
      m_TileMatrixIndex: 0
      m_TileColorIndex: 0
      m_TileObjectToInstantiateIndex: 65535
      dummyAlignment: 0
      m_AllTileFlags: 1073741825
  - first: {x: 7, y: -4, z: 0}
    second:
      serializedVersion: 2
      m_TileIndex: 117
      m_TileSpriteIndex: 117
      m_TileMatrixIndex: 0
      m_TileColorIndex: 0
      m_TileObjectToInstantiateIndex: 65535
      dummyAlignment: 0
      m_AllTileFlags: 1073741825
  - first: {x: 12, y: -4, z: 0}
    second:
      serializedVersion: 2
      m_TileIndex: 118
      m_TileSpriteIndex: 118
      m_TileMatrixIndex: 0
      m_TileColorIndex: 0
      m_TileObjectToInstantiateIndex: 65535
      dummyAlignment: 0
      m_AllTileFlags: 1073741825
  - first: {x: -2, y: -3, z: 0}
    second:
      serializedVersion: 2
      m_TileIndex: 47
      m_TileSpriteIndex: 62
      m_TileMatrixIndex: 0
      m_TileColorIndex: 0
      m_TileObjectToInstantiateIndex: 65535
      dummyAlignment: 0
      m_AllTileFlags: 1073741825
  - first: {x: -1, y: -3, z: 0}
    second:
      serializedVersion: 2
      m_TileIndex: 48
      m_TileSpriteIndex: 61
      m_TileMatrixIndex: 0
      m_TileColorIndex: 0
      m_TileObjectToInstantiateIndex: 65535
      dummyAlignment: 0
      m_AllTileFlags: 1073741825
  - first: {x: 3, y: -3, z: 0}
    second:
      serializedVersion: 2
      m_TileIndex: 120
      m_TileSpriteIndex: 120
      m_TileMatrixIndex: 0
      m_TileColorIndex: 0
      m_TileObjectToInstantiateIndex: 65535
      dummyAlignment: 0
      m_AllTileFlags: 1073741825
  - first: {x: 7, y: -3, z: 0}
    second:
      serializedVersion: 2
      m_TileIndex: 111
      m_TileSpriteIndex: 111
      m_TileMatrixIndex: 0
      m_TileColorIndex: 0
      m_TileObjectToInstantiateIndex: 65535
      dummyAlignment: 0
      m_AllTileFlags: 1073741825
  - first: {x: 8, y: -3, z: 0}
    second:
      serializedVersion: 2
      m_TileIndex: 112
      m_TileSpriteIndex: 112
      m_TileMatrixIndex: 0
      m_TileColorIndex: 0
      m_TileObjectToInstantiateIndex: 65535
      dummyAlignment: 0
      m_AllTileFlags: 1073741825
  - first: {x: 9, y: -3, z: 0}
    second:
      serializedVersion: 2
      m_TileIndex: 113
      m_TileSpriteIndex: 113
      m_TileMatrixIndex: 0
      m_TileColorIndex: 0
      m_TileObjectToInstantiateIndex: 65535
      dummyAlignment: 0
      m_AllTileFlags: 1073741825
  - first: {x: 10, y: -3, z: 0}
    second:
      serializedVersion: 2
      m_TileIndex: 114
      m_TileSpriteIndex: 114
      m_TileMatrixIndex: 0
      m_TileColorIndex: 0
      m_TileObjectToInstantiateIndex: 65535
      dummyAlignment: 0
      m_AllTileFlags: 1073741825
  - first: {x: 11, y: -3, z: 0}
    second:
      serializedVersion: 2
      m_TileIndex: 115
      m_TileSpriteIndex: 115
      m_TileMatrixIndex: 0
      m_TileColorIndex: 0
      m_TileObjectToInstantiateIndex: 65535
      dummyAlignment: 0
      m_AllTileFlags: 1073741825
  - first: {x: 12, y: -3, z: 0}
    second:
      serializedVersion: 2
      m_TileIndex: 116
      m_TileSpriteIndex: 116
      m_TileMatrixIndex: 0
      m_TileColorIndex: 0
      m_TileObjectToInstantiateIndex: 65535
      dummyAlignment: 0
      m_AllTileFlags: 1073741825
  - first: {x: -2, y: -2, z: 0}
    second:
      serializedVersion: 2
      m_TileIndex: 12
      m_TileSpriteIndex: 60
      m_TileMatrixIndex: 0
      m_TileColorIndex: 0
      m_TileObjectToInstantiateIndex: 65535
      dummyAlignment: 0
      m_AllTileFlags: 1073741825
  - first: {x: -1, y: -2, z: 0}
    second:
      serializedVersion: 2
      m_TileIndex: 13
      m_TileSpriteIndex: 59
      m_TileMatrixIndex: 0
      m_TileColorIndex: 0
      m_TileObjectToInstantiateIndex: 65535
      dummyAlignment: 0
      m_AllTileFlags: 1073741825
  - first: {x: 0, y: -2, z: 0}
    second:
      serializedVersion: 2
      m_TileIndex: 14
      m_TileSpriteIndex: 58
      m_TileMatrixIndex: 0
      m_TileColorIndex: 0
      m_TileObjectToInstantiateIndex: 65535
      dummyAlignment: 0
      m_AllTileFlags: 1073741825
  - first: {x: 1, y: -2, z: 0}
    second:
      serializedVersion: 2
      m_TileIndex: 15
      m_TileSpriteIndex: 122
      m_TileMatrixIndex: 0
      m_TileColorIndex: 0
      m_TileObjectToInstantiateIndex: 65535
      dummyAlignment: 0
      m_AllTileFlags: 1073741825
  - first: {x: 7, y: -2, z: 0}
    second:
      serializedVersion: 2
      m_TileIndex: 105
      m_TileSpriteIndex: 105
      m_TileMatrixIndex: 0
      m_TileColorIndex: 0
      m_TileObjectToInstantiateIndex: 65535
      dummyAlignment: 0
      m_AllTileFlags: 1073741825
  - first: {x: 8, y: -2, z: 0}
    second:
      serializedVersion: 2
      m_TileIndex: 106
      m_TileSpriteIndex: 106
      m_TileMatrixIndex: 0
      m_TileColorIndex: 0
      m_TileObjectToInstantiateIndex: 65535
      dummyAlignment: 0
      m_AllTileFlags: 1073741825
  - first: {x: 9, y: -2, z: 0}
    second:
      serializedVersion: 2
      m_TileIndex: 107
      m_TileSpriteIndex: 107
      m_TileMatrixIndex: 0
      m_TileColorIndex: 0
      m_TileObjectToInstantiateIndex: 65535
      dummyAlignment: 0
      m_AllTileFlags: 1073741825
  - first: {x: 10, y: -2, z: 0}
    second:
      serializedVersion: 2
      m_TileIndex: 108
      m_TileSpriteIndex: 108
      m_TileMatrixIndex: 0
      m_TileColorIndex: 0
      m_TileObjectToInstantiateIndex: 65535
      dummyAlignment: 0
      m_AllTileFlags: 1073741825
  - first: {x: 11, y: -2, z: 0}
    second:
      serializedVersion: 2
      m_TileIndex: 109
      m_TileSpriteIndex: 109
      m_TileMatrixIndex: 0
      m_TileColorIndex: 0
      m_TileObjectToInstantiateIndex: 65535
      dummyAlignment: 0
      m_AllTileFlags: 1073741825
  - first: {x: 12, y: -2, z: 0}
    second:
      serializedVersion: 2
      m_TileIndex: 110
      m_TileSpriteIndex: 110
      m_TileMatrixIndex: 0
      m_TileColorIndex: 0
      m_TileObjectToInstantiateIndex: 65535
      dummyAlignment: 0
      m_AllTileFlags: 1073741825
  - first: {x: -2, y: -1, z: 0}
    second:
      serializedVersion: 2
      m_TileIndex: 8
      m_TileSpriteIndex: 57
      m_TileMatrixIndex: 0
      m_TileColorIndex: 0
      m_TileObjectToInstantiateIndex: 65535
      dummyAlignment: 0
      m_AllTileFlags: 1073741825
  - first: {x: -1, y: -1, z: 0}
    second:
      serializedVersion: 2
      m_TileIndex: 9
      m_TileSpriteIndex: 56
      m_TileMatrixIndex: 0
      m_TileColorIndex: 0
      m_TileObjectToInstantiateIndex: 65535
      dummyAlignment: 0
      m_AllTileFlags: 1073741825
  - first: {x: 0, y: -1, z: 0}
    second:
      serializedVersion: 2
      m_TileIndex: 10
      m_TileSpriteIndex: 55
      m_TileMatrixIndex: 0
      m_TileColorIndex: 0
      m_TileObjectToInstantiateIndex: 65535
      dummyAlignment: 0
      m_AllTileFlags: 1073741825
  - first: {x: 1, y: -1, z: 0}
    second:
      serializedVersion: 2
      m_TileIndex: 11
      m_TileSpriteIndex: 121
      m_TileMatrixIndex: 0
      m_TileColorIndex: 0
      m_TileObjectToInstantiateIndex: 65535
      dummyAlignment: 0
      m_AllTileFlags: 1073741825
  - first: {x: 7, y: -1, z: 0}
    second:
      serializedVersion: 2
      m_TileIndex: 99
      m_TileSpriteIndex: 99
      m_TileMatrixIndex: 0
      m_TileColorIndex: 0
      m_TileObjectToInstantiateIndex: 65535
      dummyAlignment: 0
      m_AllTileFlags: 1073741825
  - first: {x: 8, y: -1, z: 0}
    second:
      serializedVersion: 2
      m_TileIndex: 100
      m_TileSpriteIndex: 100
      m_TileMatrixIndex: 0
      m_TileColorIndex: 0
      m_TileObjectToInstantiateIndex: 65535
      dummyAlignment: 0
      m_AllTileFlags: 1073741825
  - first: {x: 9, y: -1, z: 0}
    second:
      serializedVersion: 2
      m_TileIndex: 101
      m_TileSpriteIndex: 101
      m_TileMatrixIndex: 0
      m_TileColorIndex: 0
      m_TileObjectToInstantiateIndex: 65535
      dummyAlignment: 0
      m_AllTileFlags: 1073741825
  - first: {x: 10, y: -1, z: 0}
    second:
      serializedVersion: 2
      m_TileIndex: 102
      m_TileSpriteIndex: 102
      m_TileMatrixIndex: 0
      m_TileColorIndex: 0
      m_TileObjectToInstantiateIndex: 65535
      dummyAlignment: 0
      m_AllTileFlags: 1073741825
  - first: {x: 11, y: -1, z: 0}
    second:
      serializedVersion: 2
      m_TileIndex: 103
      m_TileSpriteIndex: 103
      m_TileMatrixIndex: 0
      m_TileColorIndex: 0
      m_TileObjectToInstantiateIndex: 65535
      dummyAlignment: 0
      m_AllTileFlags: 1073741825
  - first: {x: 12, y: -1, z: 0}
    second:
      serializedVersion: 2
      m_TileIndex: 104
      m_TileSpriteIndex: 104
      m_TileMatrixIndex: 0
      m_TileColorIndex: 0
      m_TileObjectToInstantiateIndex: 65535
      dummyAlignment: 0
      m_AllTileFlags: 1073741825
  - first: {x: -2, y: 0, z: 0}
    second:
      serializedVersion: 2
      m_TileIndex: 4
      m_TileSpriteIndex: 54
      m_TileMatrixIndex: 0
      m_TileColorIndex: 0
      m_TileObjectToInstantiateIndex: 65535
      dummyAlignment: 0
      m_AllTileFlags: 1073741825
  - first: {x: -1, y: 0, z: 0}
    second:
      serializedVersion: 2
      m_TileIndex: 5
      m_TileSpriteIndex: 53
      m_TileMatrixIndex: 0
      m_TileColorIndex: 0
      m_TileObjectToInstantiateIndex: 65535
      dummyAlignment: 0
      m_AllTileFlags: 1073741825
  - first: {x: 0, y: 0, z: 0}
    second:
      serializedVersion: 2
      m_TileIndex: 0
      m_TileSpriteIndex: 51
      m_TileMatrixIndex: 0
      m_TileColorIndex: 0
      m_TileObjectToInstantiateIndex: 65535
      dummyAlignment: 0
      m_AllTileFlags: 1073741825
  - first: {x: 1, y: 0, z: 0}
    second:
      serializedVersion: 2
      m_TileIndex: 7
      m_TileSpriteIndex: 119
      m_TileMatrixIndex: 0
      m_TileColorIndex: 0
      m_TileObjectToInstantiateIndex: 65535
      dummyAlignment: 0
      m_AllTileFlags: 1073741825
  - first: {x: 7, y: 0, z: 0}
    second:
      serializedVersion: 2
      m_TileIndex: 95
      m_TileSpriteIndex: 95
      m_TileMatrixIndex: 0
      m_TileColorIndex: 0
      m_TileObjectToInstantiateIndex: 65535
      dummyAlignment: 0
      m_AllTileFlags: 1073741825
  - first: {x: 8, y: 0, z: 0}
    second:
      serializedVersion: 2
      m_TileIndex: 96
      m_TileSpriteIndex: 96
      m_TileMatrixIndex: 0
      m_TileColorIndex: 0
      m_TileObjectToInstantiateIndex: 65535
      dummyAlignment: 0
      m_AllTileFlags: 1073741825
  - first: {x: 9, y: 0, z: 0}
    second:
      serializedVersion: 2
      m_TileIndex: 97
      m_TileSpriteIndex: 97
      m_TileMatrixIndex: 0
      m_TileColorIndex: 0
      m_TileObjectToInstantiateIndex: 65535
      dummyAlignment: 0
      m_AllTileFlags: 1073741825
  - first: {x: 10, y: 0, z: 0}
    second:
      serializedVersion: 2
      m_TileIndex: 98
      m_TileSpriteIndex: 98
      m_TileMatrixIndex: 0
      m_TileColorIndex: 0
      m_TileObjectToInstantiateIndex: 65535
      dummyAlignment: 0
      m_AllTileFlags: 1073741825
  - first: {x: -2, y: 1, z: 0}
    second:
      serializedVersion: 2
      m_TileIndex: 6
      m_TileSpriteIndex: 50
      m_TileMatrixIndex: 0
      m_TileColorIndex: 0
      m_TileObjectToInstantiateIndex: 65535
      dummyAlignment: 0
      m_AllTileFlags: 1073741825
  - first: {x: -1, y: 1, z: 0}
    second:
      serializedVersion: 2
      m_TileIndex: 1
      m_TileSpriteIndex: 49
      m_TileMatrixIndex: 0
      m_TileColorIndex: 0
      m_TileObjectToInstantiateIndex: 65535
      dummyAlignment: 0
      m_AllTileFlags: 1073741825
  - first: {x: 0, y: 1, z: 0}
    second:
      serializedVersion: 2
      m_TileIndex: 2
      m_TileSpriteIndex: 47
      m_TileMatrixIndex: 0
      m_TileColorIndex: 0
      m_TileObjectToInstantiateIndex: 65535
      dummyAlignment: 0
      m_AllTileFlags: 1073741825
  - first: {x: 1, y: 1, z: 0}
    second:
      serializedVersion: 2
      m_TileIndex: 3
      m_TileSpriteIndex: 52
      m_TileMatrixIndex: 0
      m_TileColorIndex: 0
      m_TileObjectToInstantiateIndex: 65535
      dummyAlignment: 0
      m_AllTileFlags: 1073741825
  - first: {x: 7, y: 1, z: 0}
    second:
      serializedVersion: 2
      m_TileIndex: 89
      m_TileSpriteIndex: 89
      m_TileMatrixIndex: 0
      m_TileColorIndex: 0
      m_TileObjectToInstantiateIndex: 65535
      dummyAlignment: 0
      m_AllTileFlags: 1073741825
  - first: {x: 8, y: 1, z: 0}
    second:
      serializedVersion: 2
      m_TileIndex: 90
      m_TileSpriteIndex: 90
      m_TileMatrixIndex: 0
      m_TileColorIndex: 0
      m_TileObjectToInstantiateIndex: 65535
      dummyAlignment: 0
      m_AllTileFlags: 1073741825
  - first: {x: 9, y: 1, z: 0}
    second:
      serializedVersion: 2
      m_TileIndex: 91
      m_TileSpriteIndex: 91
      m_TileMatrixIndex: 0
      m_TileColorIndex: 0
      m_TileObjectToInstantiateIndex: 65535
      dummyAlignment: 0
      m_AllTileFlags: 1073741825
  - first: {x: 10, y: 1, z: 0}
    second:
      serializedVersion: 2
      m_TileIndex: 92
      m_TileSpriteIndex: 92
      m_TileMatrixIndex: 0
      m_TileColorIndex: 0
      m_TileObjectToInstantiateIndex: 65535
      dummyAlignment: 0
      m_AllTileFlags: 1073741825
  - first: {x: 11, y: 1, z: 0}
    second:
      serializedVersion: 2
      m_TileIndex: 93
      m_TileSpriteIndex: 93
      m_TileMatrixIndex: 0
      m_TileColorIndex: 0
      m_TileObjectToInstantiateIndex: 65535
      dummyAlignment: 0
      m_AllTileFlags: 1073741825
  - first: {x: 12, y: 1, z: 0}
    second:
      serializedVersion: 2
      m_TileIndex: 94
      m_TileSpriteIndex: 94
      m_TileMatrixIndex: 0
      m_TileColorIndex: 0
      m_TileObjectToInstantiateIndex: 65535
      dummyAlignment: 0
      m_AllTileFlags: 1073741825
  - first: {x: -2, y: 2, z: 0}
    second:
      serializedVersion: 2
      m_TileIndex: 41
      m_TileSpriteIndex: 45
      m_TileMatrixIndex: 0
      m_TileColorIndex: 0
      m_TileObjectToInstantiateIndex: 65535
      dummyAlignment: 0
      m_AllTileFlags: 1073741825
  - first: {x: -1, y: 2, z: 0}
    second:
      serializedVersion: 2
      m_TileIndex: 42
      m_TileSpriteIndex: 42
      m_TileMatrixIndex: 0
      m_TileColorIndex: 0
      m_TileObjectToInstantiateIndex: 65535
      dummyAlignment: 0
      m_AllTileFlags: 1073741825
  - first: {x: 0, y: 2, z: 0}
    second:
      serializedVersion: 2
      m_TileIndex: 43
      m_TileSpriteIndex: 43
      m_TileMatrixIndex: 0
      m_TileColorIndex: 0
      m_TileObjectToInstantiateIndex: 65535
      dummyAlignment: 0
      m_AllTileFlags: 1073741825
  - first: {x: 1, y: 2, z: 0}
    second:
      serializedVersion: 2
      m_TileIndex: 44
      m_TileSpriteIndex: 44
      m_TileMatrixIndex: 0
      m_TileColorIndex: 0
      m_TileObjectToInstantiateIndex: 65535
      dummyAlignment: 0
      m_AllTileFlags: 1073741825
  - first: {x: 2, y: 2, z: 0}
    second:
      serializedVersion: 2
      m_TileIndex: 45
      m_TileSpriteIndex: 48
      m_TileMatrixIndex: 0
      m_TileColorIndex: 0
      m_TileObjectToInstantiateIndex: 65535
      dummyAlignment: 0
      m_AllTileFlags: 1073741825
  - first: {x: 3, y: 2, z: 0}
    second:
      serializedVersion: 2
      m_TileIndex: 46
      m_TileSpriteIndex: 46
      m_TileMatrixIndex: 0
      m_TileColorIndex: 0
      m_TileObjectToInstantiateIndex: 65535
      dummyAlignment: 0
      m_AllTileFlags: 1073741825
  - first: {x: 7, y: 2, z: 0}
    second:
      serializedVersion: 2
      m_TileIndex: 83
      m_TileSpriteIndex: 83
      m_TileMatrixIndex: 0
      m_TileColorIndex: 0
      m_TileObjectToInstantiateIndex: 65535
      dummyAlignment: 0
      m_AllTileFlags: 1073741825
  - first: {x: 8, y: 2, z: 0}
    second:
      serializedVersion: 2
      m_TileIndex: 84
      m_TileSpriteIndex: 84
      m_TileMatrixIndex: 0
      m_TileColorIndex: 0
      m_TileObjectToInstantiateIndex: 65535
      dummyAlignment: 0
      m_AllTileFlags: 1073741825
  - first: {x: 9, y: 2, z: 0}
    second:
      serializedVersion: 2
      m_TileIndex: 85
      m_TileSpriteIndex: 85
      m_TileMatrixIndex: 0
      m_TileColorIndex: 0
      m_TileObjectToInstantiateIndex: 65535
      dummyAlignment: 0
      m_AllTileFlags: 1073741825
  - first: {x: 10, y: 2, z: 0}
    second:
      serializedVersion: 2
      m_TileIndex: 86
      m_TileSpriteIndex: 86
      m_TileMatrixIndex: 0
      m_TileColorIndex: 0
      m_TileObjectToInstantiateIndex: 65535
      dummyAlignment: 0
      m_AllTileFlags: 1073741825
  - first: {x: 11, y: 2, z: 0}
    second:
      serializedVersion: 2
      m_TileIndex: 87
      m_TileSpriteIndex: 87
      m_TileMatrixIndex: 0
      m_TileColorIndex: 0
      m_TileObjectToInstantiateIndex: 65535
      dummyAlignment: 0
      m_AllTileFlags: 1073741825
  - first: {x: 12, y: 2, z: 0}
    second:
      serializedVersion: 2
      m_TileIndex: 88
      m_TileSpriteIndex: 88
      m_TileMatrixIndex: 0
      m_TileColorIndex: 0
      m_TileObjectToInstantiateIndex: 65535
      dummyAlignment: 0
      m_AllTileFlags: 1073741825
  - first: {x: -2, y: 3, z: 0}
    second:
      serializedVersion: 2
      m_TileIndex: 35
      m_TileSpriteIndex: 41
      m_TileMatrixIndex: 0
      m_TileColorIndex: 0
      m_TileObjectToInstantiateIndex: 65535
      dummyAlignment: 0
      m_AllTileFlags: 1073741825
  - first: {x: -1, y: 3, z: 0}
    second:
      serializedVersion: 2
      m_TileIndex: 36
      m_TileSpriteIndex: 40
      m_TileMatrixIndex: 0
      m_TileColorIndex: 0
      m_TileObjectToInstantiateIndex: 65535
      dummyAlignment: 0
      m_AllTileFlags: 1073741825
  - first: {x: 0, y: 3, z: 0}
    second:
      serializedVersion: 2
      m_TileIndex: 37
      m_TileSpriteIndex: 37
      m_TileMatrixIndex: 0
      m_TileColorIndex: 0
      m_TileObjectToInstantiateIndex: 65535
      dummyAlignment: 0
      m_AllTileFlags: 1073741825
  - first: {x: 1, y: 3, z: 0}
    second:
      serializedVersion: 2
      m_TileIndex: 38
      m_TileSpriteIndex: 38
      m_TileMatrixIndex: 0
      m_TileColorIndex: 0
      m_TileObjectToInstantiateIndex: 65535
      dummyAlignment: 0
      m_AllTileFlags: 1073741825
  - first: {x: 2, y: 3, z: 0}
    second:
      serializedVersion: 2
      m_TileIndex: 39
      m_TileSpriteIndex: 39
      m_TileMatrixIndex: 0
      m_TileColorIndex: 0
      m_TileObjectToInstantiateIndex: 65535
      dummyAlignment: 0
      m_AllTileFlags: 1073741825
  - first: {x: 3, y: 3, z: 0}
    second:
      serializedVersion: 2
      m_TileIndex: 40
      m_TileSpriteIndex: 124
      m_TileMatrixIndex: 0
      m_TileColorIndex: 0
      m_TileObjectToInstantiateIndex: 65535
      dummyAlignment: 0
      m_AllTileFlags: 1073741825
  - first: {x: 7, y: 3, z: 0}
    second:
      serializedVersion: 2
      m_TileIndex: 77
      m_TileSpriteIndex: 77
      m_TileMatrixIndex: 0
      m_TileColorIndex: 0
      m_TileObjectToInstantiateIndex: 65535
      dummyAlignment: 0
      m_AllTileFlags: 1073741825
  - first: {x: 8, y: 3, z: 0}
    second:
      serializedVersion: 2
      m_TileIndex: 78
      m_TileSpriteIndex: 78
      m_TileMatrixIndex: 0
      m_TileColorIndex: 0
      m_TileObjectToInstantiateIndex: 65535
      dummyAlignment: 0
      m_AllTileFlags: 1073741825
  - first: {x: 9, y: 3, z: 0}
    second:
      serializedVersion: 2
      m_TileIndex: 79
      m_TileSpriteIndex: 79
      m_TileMatrixIndex: 0
      m_TileColorIndex: 0
      m_TileObjectToInstantiateIndex: 65535
      dummyAlignment: 0
      m_AllTileFlags: 1073741825
  - first: {x: 10, y: 3, z: 0}
    second:
      serializedVersion: 2
      m_TileIndex: 80
      m_TileSpriteIndex: 80
      m_TileMatrixIndex: 0
      m_TileColorIndex: 0
      m_TileObjectToInstantiateIndex: 65535
      dummyAlignment: 0
      m_AllTileFlags: 1073741825
  - first: {x: 11, y: 3, z: 0}
    second:
      serializedVersion: 2
      m_TileIndex: 81
      m_TileSpriteIndex: 81
      m_TileMatrixIndex: 0
      m_TileColorIndex: 0
      m_TileObjectToInstantiateIndex: 65535
      dummyAlignment: 0
      m_AllTileFlags: 1073741825
  - first: {x: 12, y: 3, z: 0}
    second:
      serializedVersion: 2
      m_TileIndex: 82
      m_TileSpriteIndex: 82
      m_TileMatrixIndex: 0
      m_TileColorIndex: 0
      m_TileObjectToInstantiateIndex: 65535
      dummyAlignment: 0
      m_AllTileFlags: 1073741825
  - first: {x: -2, y: 4, z: 0}
    second:
      serializedVersion: 2
      m_TileIndex: 31
      m_TileSpriteIndex: 36
      m_TileMatrixIndex: 0
      m_TileColorIndex: 0
      m_TileObjectToInstantiateIndex: 65535
      dummyAlignment: 0
      m_AllTileFlags: 1073741825
  - first: {x: -1, y: 4, z: 0}
    second:
      serializedVersion: 2
      m_TileIndex: 32
      m_TileSpriteIndex: 35
      m_TileMatrixIndex: 0
      m_TileColorIndex: 0
      m_TileObjectToInstantiateIndex: 65535
      dummyAlignment: 0
      m_AllTileFlags: 1073741825
  - first: {x: 0, y: 4, z: 0}
    second:
      serializedVersion: 2
      m_TileIndex: 33
      m_TileSpriteIndex: 33
      m_TileMatrixIndex: 0
      m_TileColorIndex: 0
      m_TileObjectToInstantiateIndex: 65535
      dummyAlignment: 0
      m_AllTileFlags: 1073741825
  - first: {x: 1, y: 4, z: 0}
    second:
      serializedVersion: 2
      m_TileIndex: 34
      m_TileSpriteIndex: 34
      m_TileMatrixIndex: 0
      m_TileColorIndex: 0
      m_TileObjectToInstantiateIndex: 65535
      dummyAlignment: 0
      m_AllTileFlags: 1073741825
  - first: {x: 7, y: 4, z: 0}
    second:
      serializedVersion: 2
      m_TileIndex: 73
      m_TileSpriteIndex: 73
      m_TileMatrixIndex: 0
      m_TileColorIndex: 0
      m_TileObjectToInstantiateIndex: 65535
      dummyAlignment: 0
      m_AllTileFlags: 1073741825
  - first: {x: 8, y: 4, z: 0}
    second:
      serializedVersion: 2
      m_TileIndex: 74
      m_TileSpriteIndex: 74
      m_TileMatrixIndex: 0
      m_TileColorIndex: 0
      m_TileObjectToInstantiateIndex: 65535
      dummyAlignment: 0
      m_AllTileFlags: 1073741825
  - first: {x: 9, y: 4, z: 0}
    second:
      serializedVersion: 2
      m_TileIndex: 75
      m_TileSpriteIndex: 75
      m_TileMatrixIndex: 0
      m_TileColorIndex: 0
      m_TileObjectToInstantiateIndex: 65535
      dummyAlignment: 0
      m_AllTileFlags: 1073741825
  - first: {x: 10, y: 4, z: 0}
    second:
      serializedVersion: 2
      m_TileIndex: 76
      m_TileSpriteIndex: 76
      m_TileMatrixIndex: 0
      m_TileColorIndex: 0
      m_TileObjectToInstantiateIndex: 65535
      dummyAlignment: 0
      m_AllTileFlags: 1073741825
  - first: {x: -2, y: 5, z: 0}
    second:
      serializedVersion: 2
      m_TileIndex: 27
      m_TileSpriteIndex: 32
      m_TileMatrixIndex: 0
      m_TileColorIndex: 0
      m_TileObjectToInstantiateIndex: 65535
      dummyAlignment: 0
      m_AllTileFlags: 1073741825
  - first: {x: -1, y: 5, z: 0}
    second:
      serializedVersion: 2
      m_TileIndex: 28
      m_TileSpriteIndex: 31
      m_TileMatrixIndex: 0
      m_TileColorIndex: 0
      m_TileObjectToInstantiateIndex: 65535
      dummyAlignment: 0
      m_AllTileFlags: 1073741825
  - first: {x: 0, y: 5, z: 0}
    second:
      serializedVersion: 2
      m_TileIndex: 29
      m_TileSpriteIndex: 29
      m_TileMatrixIndex: 0
      m_TileColorIndex: 0
      m_TileObjectToInstantiateIndex: 65535
      dummyAlignment: 0
      m_AllTileFlags: 1073741825
  - first: {x: 1, y: 5, z: 0}
    second:
      serializedVersion: 2
      m_TileIndex: 30
      m_TileSpriteIndex: 30
      m_TileMatrixIndex: 0
      m_TileColorIndex: 0
      m_TileObjectToInstantiateIndex: 65535
      dummyAlignment: 0
      m_AllTileFlags: 1073741825
  - first: {x: 7, y: 5, z: 0}
    second:
      serializedVersion: 2
      m_TileIndex: 67
      m_TileSpriteIndex: 67
      m_TileMatrixIndex: 0
      m_TileColorIndex: 0
      m_TileObjectToInstantiateIndex: 65535
      dummyAlignment: 0
      m_AllTileFlags: 1073741825
  - first: {x: 8, y: 5, z: 0}
    second:
      serializedVersion: 2
      m_TileIndex: 68
      m_TileSpriteIndex: 68
      m_TileMatrixIndex: 0
      m_TileColorIndex: 0
      m_TileObjectToInstantiateIndex: 65535
      dummyAlignment: 0
      m_AllTileFlags: 1073741825
  - first: {x: 9, y: 5, z: 0}
    second:
      serializedVersion: 2
      m_TileIndex: 69
      m_TileSpriteIndex: 69
      m_TileMatrixIndex: 0
      m_TileColorIndex: 0
      m_TileObjectToInstantiateIndex: 65535
      dummyAlignment: 0
      m_AllTileFlags: 1073741825
  - first: {x: 10, y: 5, z: 0}
    second:
      serializedVersion: 2
      m_TileIndex: 70
      m_TileSpriteIndex: 70
      m_TileMatrixIndex: 0
      m_TileColorIndex: 0
      m_TileObjectToInstantiateIndex: 65535
      dummyAlignment: 0
      m_AllTileFlags: 1073741825
  - first: {x: 11, y: 5, z: 0}
    second:
      serializedVersion: 2
      m_TileIndex: 71
      m_TileSpriteIndex: 71
      m_TileMatrixIndex: 0
      m_TileColorIndex: 0
      m_TileObjectToInstantiateIndex: 65535
      dummyAlignment: 0
      m_AllTileFlags: 1073741825
  - first: {x: 12, y: 5, z: 0}
    second:
      serializedVersion: 2
      m_TileIndex: 72
      m_TileSpriteIndex: 72
      m_TileMatrixIndex: 0
      m_TileColorIndex: 0
      m_TileObjectToInstantiateIndex: 65535
      dummyAlignment: 0
      m_AllTileFlags: 1073741825
  - first: {x: -2, y: 6, z: 0}
    second:
      serializedVersion: 2
      m_TileIndex: 22
      m_TileSpriteIndex: 28
      m_TileMatrixIndex: 0
      m_TileColorIndex: 0
      m_TileObjectToInstantiateIndex: 65535
      dummyAlignment: 0
      m_AllTileFlags: 1073741825
  - first: {x: -1, y: 6, z: 0}
    second:
      serializedVersion: 2
      m_TileIndex: 23
      m_TileSpriteIndex: 27
      m_TileMatrixIndex: 0
      m_TileColorIndex: 0
      m_TileObjectToInstantiateIndex: 65535
      dummyAlignment: 0
      m_AllTileFlags: 1073741825
  - first: {x: 1, y: 6, z: 0}
    second:
      serializedVersion: 2
      m_TileIndex: 24
      m_TileSpriteIndex: 24
      m_TileMatrixIndex: 0
      m_TileColorIndex: 0
      m_TileObjectToInstantiateIndex: 65535
      dummyAlignment: 0
      m_AllTileFlags: 1073741825
  - first: {x: 2, y: 6, z: 0}
    second:
      serializedVersion: 2
      m_TileIndex: 25
      m_TileSpriteIndex: 25
      m_TileMatrixIndex: 0
      m_TileColorIndex: 0
      m_TileObjectToInstantiateIndex: 65535
      dummyAlignment: 0
      m_AllTileFlags: 1073741825
  - first: {x: 3, y: 6, z: 0}
    second:
      serializedVersion: 2
      m_TileIndex: 26
      m_TileSpriteIndex: 26
      m_TileMatrixIndex: 0
      m_TileColorIndex: 0
      m_TileObjectToInstantiateIndex: 65535
      dummyAlignment: 0
      m_AllTileFlags: 1073741825
  - first: {x: 7, y: 6, z: 0}
    second:
      serializedVersion: 2
      m_TileIndex: 57
      m_TileSpriteIndex: 23
      m_TileMatrixIndex: 0
      m_TileColorIndex: 0
      m_TileObjectToInstantiateIndex: 65535
      dummyAlignment: 0
      m_AllTileFlags: 1073741825
  - first: {x: 8, y: 6, z: 0}
    second:
      serializedVersion: 2
      m_TileIndex: 56
      m_TileSpriteIndex: 22
      m_TileMatrixIndex: 0
      m_TileColorIndex: 0
      m_TileObjectToInstantiateIndex: 65535
      dummyAlignment: 0
      m_AllTileFlags: 1073741825
  - first: {x: 9, y: 6, z: 0}
    second:
      serializedVersion: 2
      m_TileIndex: 55
      m_TileSpriteIndex: 15
      m_TileMatrixIndex: 0
      m_TileColorIndex: 0
      m_TileObjectToInstantiateIndex: 65535
      dummyAlignment: 0
      m_AllTileFlags: 1073741825
  - first: {x: 10, y: 6, z: 0}
    second:
      serializedVersion: 2
      m_TileIndex: 64
      m_TileSpriteIndex: 64
      m_TileMatrixIndex: 0
      m_TileColorIndex: 0
      m_TileObjectToInstantiateIndex: 65535
      dummyAlignment: 0
      m_AllTileFlags: 1073741825
  - first: {x: 11, y: 6, z: 0}
    second:
      serializedVersion: 2
      m_TileIndex: 65
      m_TileSpriteIndex: 65
      m_TileMatrixIndex: 0
      m_TileColorIndex: 0
      m_TileObjectToInstantiateIndex: 65535
      dummyAlignment: 0
      m_AllTileFlags: 1073741825
  - first: {x: 12, y: 6, z: 0}
    second:
      serializedVersion: 2
      m_TileIndex: 66
      m_TileSpriteIndex: 66
      m_TileMatrixIndex: 0
      m_TileColorIndex: 0
      m_TileObjectToInstantiateIndex: 65535
      dummyAlignment: 0
      m_AllTileFlags: 1073741825
  - first: {x: -2, y: 7, z: 0}
    second:
      serializedVersion: 2
      m_TileIndex: 16
      m_TileSpriteIndex: 16
      m_TileMatrixIndex: 0
      m_TileColorIndex: 0
      m_TileObjectToInstantiateIndex: 65535
      dummyAlignment: 0
      m_AllTileFlags: 1073741825
  - first: {x: -1, y: 7, z: 0}
    second:
      serializedVersion: 2
      m_TileIndex: 17
      m_TileSpriteIndex: 17
      m_TileMatrixIndex: 0
      m_TileColorIndex: 0
      m_TileObjectToInstantiateIndex: 65535
      dummyAlignment: 0
      m_AllTileFlags: 1073741825
  - first: {x: 0, y: 7, z: 0}
    second:
      serializedVersion: 2
      m_TileIndex: 18
      m_TileSpriteIndex: 18
      m_TileMatrixIndex: 0
      m_TileColorIndex: 0
      m_TileObjectToInstantiateIndex: 65535
      dummyAlignment: 0
      m_AllTileFlags: 1073741825
  - first: {x: 1, y: 7, z: 0}
    second:
      serializedVersion: 2
      m_TileIndex: 19
      m_TileSpriteIndex: 19
      m_TileMatrixIndex: 0
      m_TileColorIndex: 0
      m_TileObjectToInstantiateIndex: 65535
      dummyAlignment: 0
      m_AllTileFlags: 1073741825
  - first: {x: 2, y: 7, z: 0}
    second:
      serializedVersion: 2
      m_TileIndex: 20
      m_TileSpriteIndex: 20
      m_TileMatrixIndex: 0
      m_TileColorIndex: 0
      m_TileObjectToInstantiateIndex: 65535
      dummyAlignment: 0
      m_AllTileFlags: 1073741825
  - first: {x: 3, y: 7, z: 0}
    second:
      serializedVersion: 2
      m_TileIndex: 21
      m_TileSpriteIndex: 21
      m_TileMatrixIndex: 0
      m_TileColorIndex: 0
      m_TileObjectToInstantiateIndex: 65535
      dummyAlignment: 0
      m_AllTileFlags: 1073741825
  - first: {x: 7, y: 7, z: 0}
    second:
      serializedVersion: 2
      m_TileIndex: 63
      m_TileSpriteIndex: 14
      m_TileMatrixIndex: 0
      m_TileColorIndex: 0
      m_TileObjectToInstantiateIndex: 65535
      dummyAlignment: 0
      m_AllTileFlags: 1073741825
  - first: {x: 8, y: 7, z: 0}
    second:
      serializedVersion: 2
      m_TileIndex: 62
      m_TileSpriteIndex: 13
      m_TileMatrixIndex: 0
      m_TileColorIndex: 0
      m_TileObjectToInstantiateIndex: 65535
      dummyAlignment: 0
      m_AllTileFlags: 1073741825
  - first: {x: 9, y: 7, z: 0}
    second:
      serializedVersion: 2
      m_TileIndex: 61
      m_TileSpriteIndex: 12
      m_TileMatrixIndex: 0
      m_TileColorIndex: 0
      m_TileObjectToInstantiateIndex: 65535
      dummyAlignment: 0
      m_AllTileFlags: 1073741825
  - first: {x: 10, y: 7, z: 0}
    second:
      serializedVersion: 2
      m_TileIndex: 60
      m_TileSpriteIndex: 11
      m_TileMatrixIndex: 0
      m_TileColorIndex: 0
      m_TileObjectToInstantiateIndex: 65535
      dummyAlignment: 0
      m_AllTileFlags: 1073741825
  - first: {x: 11, y: 7, z: 0}
    second:
      serializedVersion: 2
      m_TileIndex: 59
      m_TileSpriteIndex: 10
      m_TileMatrixIndex: 0
      m_TileColorIndex: 0
      m_TileObjectToInstantiateIndex: 65535
      dummyAlignment: 0
      m_AllTileFlags: 1073741825
  - first: {x: 12, y: 7, z: 0}
    second:
      serializedVersion: 2
      m_TileIndex: 58
      m_TileSpriteIndex: 9
      m_TileMatrixIndex: 0
      m_TileColorIndex: 0
      m_TileObjectToInstantiateIndex: 65535
      dummyAlignment: 0
      m_AllTileFlags: 1073741825
  m_AnimatedTiles: {}
  m_TileAssetArray:
  - m_RefCount: 1
    m_Data: {fileID: 11400000, guid: 1d08f65c10e625e4b9fa51b6e2e44de6, type: 2}
  - m_RefCount: 1
    m_Data: {fileID: 11400000, guid: 8f10e71304a449b4c8031abea6e0e652, type: 2}
  - m_RefCount: 1
    m_Data: {fileID: 11400000, guid: 8b1db4cabe428614889c2590f6028427, type: 2}
  - m_RefCount: 1
    m_Data: {fileID: 11400000, guid: e036febb783dc6444ac90bbbbbe8cd26, type: 2}
  - m_RefCount: 1
    m_Data: {fileID: 11400000, guid: 8788dee0e785864498b21c8548ee90e1, type: 2}
  - m_RefCount: 1
    m_Data: {fileID: 11400000, guid: f88d3dc8130e4e14ba77f9cf4c2c9b65, type: 2}
  - m_RefCount: 1
    m_Data: {fileID: 11400000, guid: 3d2d56f2384b8f348864d4de51009a96, type: 2}
  - m_RefCount: 1
    m_Data: {fileID: 11400000, guid: 727c3d315a2a973438c4ddbe8714a312, type: 2}
  - m_RefCount: 1
    m_Data: {fileID: 11400000, guid: 8d050075082fae149b260b8e5522aa44, type: 2}
  - m_RefCount: 1
    m_Data: {fileID: 11400000, guid: 413e74ca81f4d1148a4099f99a65a0e5, type: 2}
  - m_RefCount: 1
    m_Data: {fileID: 11400000, guid: ffae371b5960a6742b1f34925e1a6ac8, type: 2}
  - m_RefCount: 1
    m_Data: {fileID: 11400000, guid: a1146219c0bb4fd4cb1e4e0ef685573b, type: 2}
  - m_RefCount: 1
    m_Data: {fileID: 11400000, guid: 171699867e1e08d4498d91371b3a4341, type: 2}
  - m_RefCount: 1
    m_Data: {fileID: 11400000, guid: dc6b99748826c684fab1edd609b04a88, type: 2}
  - m_RefCount: 1
    m_Data: {fileID: 11400000, guid: f0e051aacd7c7b04797830d0baefea85, type: 2}
  - m_RefCount: 1
    m_Data: {fileID: 11400000, guid: 4cc66ae0ab052db4fba1535aa64185f5, type: 2}
  - m_RefCount: 1
    m_Data: {fileID: 11400000, guid: a311dca743201874aa15b0f38abe7adf, type: 2}
  - m_RefCount: 1
    m_Data: {fileID: 11400000, guid: 35ae92ef1d833414ca0b035582f28c4e, type: 2}
  - m_RefCount: 1
    m_Data: {fileID: 11400000, guid: 6376f6e7aef8426498c227ee032c4131, type: 2}
  - m_RefCount: 1
    m_Data: {fileID: 11400000, guid: 508560833c65f3848903dc681eeba3bc, type: 2}
  - m_RefCount: 1
    m_Data: {fileID: 11400000, guid: 2df35a85efbfc6644af23f58bdece9af, type: 2}
  - m_RefCount: 1
    m_Data: {fileID: 11400000, guid: 748a109b53fa0c44ea2068b859dbe0c6, type: 2}
  - m_RefCount: 1
    m_Data: {fileID: 11400000, guid: dbe76ffb4e3fc8044b2aea3c3b1847d9, type: 2}
  - m_RefCount: 1
    m_Data: {fileID: 11400000, guid: df6fe6797d20ff345b7f08255a56a229, type: 2}
  - m_RefCount: 1
    m_Data: {fileID: 11400000, guid: 6f464e66eb78db341baba01e2c4d0a23, type: 2}
  - m_RefCount: 1
    m_Data: {fileID: 11400000, guid: b8549ba459e451c4ca5c0815e855842d, type: 2}
  - m_RefCount: 1
    m_Data: {fileID: 11400000, guid: 702670471d04a874985f9e95002fbdbd, type: 2}
  - m_RefCount: 1
    m_Data: {fileID: 11400000, guid: 9c91f645a0ef1c045b51cea4feeba84f, type: 2}
  - m_RefCount: 1
    m_Data: {fileID: 11400000, guid: 4f779d050ef89bb4088a9d809293e4b5, type: 2}
  - m_RefCount: 1
    m_Data: {fileID: 11400000, guid: fb72a6aa8dcb49042839cd542e0c5788, type: 2}
  - m_RefCount: 1
    m_Data: {fileID: 11400000, guid: f1056743d79c14a4b87a62f2cbbf8e36, type: 2}
  - m_RefCount: 1
    m_Data: {fileID: 11400000, guid: bdc2a903b20c5674bbb11ab338b02a03, type: 2}
  - m_RefCount: 1
    m_Data: {fileID: 11400000, guid: 3671018d44609724ea99ca6549374ff4, type: 2}
  - m_RefCount: 1
    m_Data: {fileID: 11400000, guid: 4ec7b924fa641ba4eae29b7a3f0257bc, type: 2}
  - m_RefCount: 1
    m_Data: {fileID: 11400000, guid: beca07804e1f97548bd86f5e7b8d7dbc, type: 2}
  - m_RefCount: 1
    m_Data: {fileID: 11400000, guid: 985055229885d8b4889cdef2b8d07daa, type: 2}
  - m_RefCount: 1
    m_Data: {fileID: 11400000, guid: a38ce0ab7ae59954d985ab51b8db3be4, type: 2}
  - m_RefCount: 1
    m_Data: {fileID: 11400000, guid: 3c75d187720bc9c4ca8e1c94c2f449a0, type: 2}
  - m_RefCount: 1
    m_Data: {fileID: 11400000, guid: 4af7f0b7ac7049a4987dd2eafbd22773, type: 2}
  - m_RefCount: 1
    m_Data: {fileID: 11400000, guid: 39e18bbedf84d434cae826f5986ed41c, type: 2}
  - m_RefCount: 1
    m_Data: {fileID: 11400000, guid: 0aa7f6e09f4f6f24fa0fada787a12dea, type: 2}
  - m_RefCount: 1
    m_Data: {fileID: 11400000, guid: ab52acfe0ba4e234ab215aeeea761264, type: 2}
  - m_RefCount: 1
    m_Data: {fileID: 11400000, guid: 5c1385c4086a1d043afafc41bfd6df45, type: 2}
  - m_RefCount: 1
    m_Data: {fileID: 11400000, guid: f2b3e39b4c097964ba15ed9d902954d3, type: 2}
  - m_RefCount: 1
    m_Data: {fileID: 11400000, guid: d5bf44883611de34b90212020f37ad62, type: 2}
  - m_RefCount: 1
    m_Data: {fileID: 11400000, guid: 74fb8f6b2fd861841928270545881315, type: 2}
  - m_RefCount: 1
    m_Data: {fileID: 11400000, guid: 783e6b7dbae7266478d6933f223c1b72, type: 2}
  - m_RefCount: 1
    m_Data: {fileID: 11400000, guid: fa3ccf9fa3fa8e14eb7d03497ad712c9, type: 2}
  - m_RefCount: 1
    m_Data: {fileID: 11400000, guid: 173179653d9106145b11c95a3b253e53, type: 2}
  - m_RefCount: 1
    m_Data: {fileID: 11400000, guid: af0fd73e8dfda2242a0cb880e210cb7e, type: 2}
  - m_RefCount: 1
    m_Data: {fileID: 11400000, guid: 35568538418af2641b7954f31caefe6e, type: 2}
  - m_RefCount: 1
    m_Data: {fileID: 11400000, guid: 4169f5748a30ad24083fd944f9a00e5a, type: 2}
  - m_RefCount: 1
    m_Data: {fileID: 11400000, guid: 37955341fead7a34d86a959cd80aaf33, type: 2}
  - m_RefCount: 1
    m_Data: {fileID: 11400000, guid: e735cc156c524f6409c89084b2412905, type: 2}
  - m_RefCount: 1
    m_Data: {fileID: 11400000, guid: 3242876405d5dcb47bf78a0dc54b6ee6, type: 2}
  - m_RefCount: 1
    m_Data: {fileID: 11400000, guid: eda75e399bbe0cb439a8e6fb20614827, type: 2}
  - m_RefCount: 1
    m_Data: {fileID: 11400000, guid: 3cc7ae77a87226248a531dba826c6113, type: 2}
  - m_RefCount: 1
    m_Data: {fileID: 11400000, guid: 151bffedbb81b3f4a8db8f58b80b206f, type: 2}
  - m_RefCount: 1
    m_Data: {fileID: 11400000, guid: 30064571d9cac3e4b8de27695c3022b0, type: 2}
  - m_RefCount: 1
    m_Data: {fileID: 11400000, guid: ef393462d16651c40849f7f07353e753, type: 2}
  - m_RefCount: 1
    m_Data: {fileID: 11400000, guid: cb97a8948f5f7854c9231e0d60aeee90, type: 2}
  - m_RefCount: 1
    m_Data: {fileID: 11400000, guid: 7d0c3e056b157ac45a3cbb91c517f86f, type: 2}
  - m_RefCount: 1
    m_Data: {fileID: 11400000, guid: 997ad98ed3b078749a15d22a4f7e6421, type: 2}
  - m_RefCount: 1
    m_Data: {fileID: 11400000, guid: 00a75ac15d8904141b720605fb87b867, type: 2}
  - m_RefCount: 1
    m_Data: {fileID: 11400000, guid: 7127e576103c20a46bbd847e49ce57b4, type: 2}
  - m_RefCount: 1
    m_Data: {fileID: 11400000, guid: 86ee84e448b6fab42aeeda5d8e0e6c57, type: 2}
  - m_RefCount: 1
    m_Data: {fileID: 11400000, guid: c9b180e8305242d4b9c10a499b0da3c0, type: 2}
  - m_RefCount: 1
    m_Data: {fileID: 11400000, guid: a258a730fc1e57a4990702a93bff5800, type: 2}
  - m_RefCount: 1
    m_Data: {fileID: 11400000, guid: d4452dbb9e2b3024cbc6848f3ecab02a, type: 2}
  - m_RefCount: 1
    m_Data: {fileID: 11400000, guid: 7b560e1866abf624da02bf1e7f5f9949, type: 2}
  - m_RefCount: 1
    m_Data: {fileID: 11400000, guid: 4030fe9c5f417fb418d8e5b7ab269e74, type: 2}
  - m_RefCount: 1
    m_Data: {fileID: 11400000, guid: 1407c3ed3a4c24949bc3e04ccbafee82, type: 2}
  - m_RefCount: 1
    m_Data: {fileID: 11400000, guid: 47ac73e8655dcb54f9b88b409bce7433, type: 2}
  - m_RefCount: 1
    m_Data: {fileID: 11400000, guid: a03bf3c1727877a4ebf657fdff3be046, type: 2}
  - m_RefCount: 1
    m_Data: {fileID: 11400000, guid: 69a507f08790e5d48844f54e0a0f6d5a, type: 2}
  - m_RefCount: 1
    m_Data: {fileID: 11400000, guid: accb0b00ebd959246923357b7d12f2f0, type: 2}
  - m_RefCount: 1
    m_Data: {fileID: 11400000, guid: b0909864c62e479428ef35c49a7ae423, type: 2}
  - m_RefCount: 1
    m_Data: {fileID: 11400000, guid: 294ae9ecdb67c024a81438b926d0d066, type: 2}
  - m_RefCount: 1
    m_Data: {fileID: 11400000, guid: f5cf09d1179805a4bb806191a6f96b4c, type: 2}
  - m_RefCount: 1
    m_Data: {fileID: 11400000, guid: 527e598265cf55547afef674d747bc5c, type: 2}
  - m_RefCount: 1
    m_Data: {fileID: 11400000, guid: 5e630b1a6c515c54dbadc77281130329, type: 2}
  - m_RefCount: 1
    m_Data: {fileID: 11400000, guid: 343face1c6a2253429d9d92c2579f69d, type: 2}
  - m_RefCount: 1
    m_Data: {fileID: 11400000, guid: 059fddb0c1df3a9419211acaaee7a5da, type: 2}
  - m_RefCount: 1
    m_Data: {fileID: 11400000, guid: 701ebf995555e76498c797e021fb620d, type: 2}
  - m_RefCount: 1
    m_Data: {fileID: 11400000, guid: d467a858414f74b4a88bcdfc1019c3b0, type: 2}
  - m_RefCount: 1
    m_Data: {fileID: 11400000, guid: f127e0844a2fe544abbb53c227d0ca19, type: 2}
  - m_RefCount: 1
    m_Data: {fileID: 11400000, guid: 5cbbef276064a824ab0fcece99be1f45, type: 2}
  - m_RefCount: 1
    m_Data: {fileID: 11400000, guid: 13e883a74eb54f04f9ae0aa7e060e1bc, type: 2}
  - m_RefCount: 1
    m_Data: {fileID: 11400000, guid: db1fa6d78839794429d2257e70f7d042, type: 2}
  - m_RefCount: 1
    m_Data: {fileID: 11400000, guid: f442f45019fd55e49891343d26afc29b, type: 2}
  - m_RefCount: 1
    m_Data: {fileID: 11400000, guid: 228cf0d54e9d15f4b80de0ba560b3584, type: 2}
  - m_RefCount: 1
    m_Data: {fileID: 11400000, guid: f1e83d176eb4d1342bb3746037118c33, type: 2}
  - m_RefCount: 1
    m_Data: {fileID: 11400000, guid: 5d0b942f3bfc3a44982b3255ee6cf0ea, type: 2}
  - m_RefCount: 1
    m_Data: {fileID: 11400000, guid: b0735823865d4ea46bdb19fad0ba2c3a, type: 2}
  - m_RefCount: 1
    m_Data: {fileID: 11400000, guid: fcc57f8994ac73d49ba44c173b001da1, type: 2}
  - m_RefCount: 1
    m_Data: {fileID: 11400000, guid: 9ae8fa8b4775bf84ea6d4447905982ae, type: 2}
  - m_RefCount: 1
    m_Data: {fileID: 11400000, guid: e15048ea3f9e1704a888a9073939e977, type: 2}
  - m_RefCount: 1
    m_Data: {fileID: 11400000, guid: b80cf841414d85a4f8feeec0bee60a2a, type: 2}
  - m_RefCount: 1
    m_Data: {fileID: 11400000, guid: 22ca8dc2480107c4a9290424a938f338, type: 2}
  - m_RefCount: 1
    m_Data: {fileID: 11400000, guid: a7ebaa280471ccd49860764375dc0766, type: 2}
  - m_RefCount: 1
    m_Data: {fileID: 11400000, guid: 2e574add8edf0054797a0ab2f34e47ec, type: 2}
  - m_RefCount: 1
    m_Data: {fileID: 11400000, guid: ba43e815df3f2f24d80ca45a648940dd, type: 2}
  - m_RefCount: 1
    m_Data: {fileID: 11400000, guid: bcffb87aa48c3fa4cb2e5fe87d6c78b9, type: 2}
  - m_RefCount: 1
    m_Data: {fileID: 11400000, guid: 9f1d9931cb62d85439f3530b54f673dc, type: 2}
  - m_RefCount: 1
    m_Data: {fileID: 11400000, guid: 6881c5dd7978e734a94328a4aa0799db, type: 2}
  - m_RefCount: 1
    m_Data: {fileID: 11400000, guid: a445785a730afd646ac4fdad79c6f07b, type: 2}
  - m_RefCount: 1
    m_Data: {fileID: 11400000, guid: f26acef729a97f14dab12b845765c157, type: 2}
  - m_RefCount: 1
    m_Data: {fileID: 11400000, guid: cb25db85991b65740b4c6be278a560df, type: 2}
  - m_RefCount: 1
    m_Data: {fileID: 11400000, guid: 857d30a6e886bc64382c7cccd2fdfa65, type: 2}
  - m_RefCount: 1
    m_Data: {fileID: 11400000, guid: 9a2b7c6db626e314db451a2f8c8aa520, type: 2}
  - m_RefCount: 1
    m_Data: {fileID: 11400000, guid: 9acb389fe509c9f4c84b2c0ca3eb59ed, type: 2}
  - m_RefCount: 1
    m_Data: {fileID: 11400000, guid: 9436ac8c06bb6924885c9f1128240ecc, type: 2}
  - m_RefCount: 1
    m_Data: {fileID: 11400000, guid: 64274bae927537d428d2a147fb2add4f, type: 2}
  - m_RefCount: 1
    m_Data: {fileID: 11400000, guid: 70b5e8ed116ff904c8b6c16427b0182b, type: 2}
  - m_RefCount: 1
    m_Data: {fileID: 11400000, guid: c113618a2924960449c644f35f5274a1, type: 2}
  - m_RefCount: 1
    m_Data: {fileID: 11400000, guid: f08803ceba85fef4aaa1962579e01f43, type: 2}
  - m_RefCount: 1
    m_Data: {fileID: 11400000, guid: ce507091bb38685459365fcb5da7f543, type: 2}
  - m_RefCount: 1
    m_Data: {fileID: 11400000, guid: 54a353ee01fc7f74e97d8881f5dcc963, type: 2}
  - m_RefCount: 1
    m_Data: {fileID: 11400000, guid: 3c23ffd6b33a08044bb18f53ed422830, type: 2}
  - m_RefCount: 1
    m_Data: {fileID: 11400000, guid: 6c1c34b28e3303848bba28cbf6f7af74, type: 2}
  - m_RefCount: 1
    m_Data: {fileID: 11400000, guid: 64db04d7c0e578349b0c170657c3edf3, type: 2}
  - m_RefCount: 0
    m_Data: {fileID: 0}
  - m_RefCount: 1
    m_Data: {fileID: 11400000, guid: 10d16185810c3914bbcd015e1a61ae33, type: 2}
  - m_RefCount: 1
    m_Data: {fileID: 11400000, guid: 5aa9930afaac77c4b9980b134e30d74e, type: 2}
  - m_RefCount: 1
    m_Data: {fileID: 11400000, guid: f348dad2c73cd1048b4f10aaa14e9e0b, type: 2}
  - m_RefCount: 1
    m_Data: {fileID: 11400000, guid: 40886920ec504a74b9fb355a8d5cb45d, type: 2}
  - m_RefCount: 1
    m_Data: {fileID: 11400000, guid: cb71fce92ef8af743b7a0a933a8a1b7f, type: 2}
  - m_RefCount: 1
    m_Data: {fileID: 11400000, guid: 23724bac30cfaf9428efc225b1ea96cb, type: 2}
  - m_RefCount: 1
    m_Data: {fileID: 11400000, guid: b7e792c89ded3084daa02e2e59dd1931, type: 2}
  - m_RefCount: 1
    m_Data: {fileID: 11400000, guid: 9b05b3a0d6f7e814f94e91bcbd8074e7, type: 2}
  m_TileSpriteArray:
  - m_RefCount: 0
    m_Data: {fileID: 0}
  - m_RefCount: 1
    m_Data: {fileID: -1512344790, guid: c3372c4f190a7fc41af27ed78510de37, type: 3}
  - m_RefCount: 1
    m_Data: {fileID: 1707438177, guid: c3372c4f190a7fc41af27ed78510de37, type: 3}
  - m_RefCount: 1
    m_Data: {fileID: -480993777, guid: c3372c4f190a7fc41af27ed78510de37, type: 3}
  - m_RefCount: 1
    m_Data: {fileID: 1342628055, guid: c3372c4f190a7fc41af27ed78510de37, type: 3}
  - m_RefCount: 1
    m_Data: {fileID: -1671328851, guid: c3372c4f190a7fc41af27ed78510de37, type: 3}
  - m_RefCount: 1
    m_Data: {fileID: 1324874072, guid: c3372c4f190a7fc41af27ed78510de37, type: 3}
  - m_RefCount: 1
    m_Data: {fileID: 720488907, guid: c3372c4f190a7fc41af27ed78510de37, type: 3}
  - m_RefCount: 1
    m_Data: {fileID: -1979575720, guid: c3372c4f190a7fc41af27ed78510de37, type: 3}
  - m_RefCount: 1
    m_Data: {fileID: -1216584164, guid: 5814fcf9ccd46b04bab5fefd29abde82, type: 3}
  - m_RefCount: 1
    m_Data: {fileID: -1824433520, guid: 5814fcf9ccd46b04bab5fefd29abde82, type: 3}
  - m_RefCount: 1
    m_Data: {fileID: 1645237749, guid: 5814fcf9ccd46b04bab5fefd29abde82, type: 3}
  - m_RefCount: 1
    m_Data: {fileID: -1995311981, guid: 5814fcf9ccd46b04bab5fefd29abde82, type: 3}
  - m_RefCount: 1
    m_Data: {fileID: -1483144139, guid: 5814fcf9ccd46b04bab5fefd29abde82, type: 3}
  - m_RefCount: 1
    m_Data: {fileID: 1428060142, guid: 5814fcf9ccd46b04bab5fefd29abde82, type: 3}
  - m_RefCount: 1
    m_Data: {fileID: 304516811, guid: 5814fcf9ccd46b04bab5fefd29abde82, type: 3}
  - m_RefCount: 1
    m_Data: {fileID: -1862661605, guid: d52376870d025864494fe4563ad60a18, type: 3}
  - m_RefCount: 1
    m_Data: {fileID: 133583386, guid: d52376870d025864494fe4563ad60a18, type: 3}
  - m_RefCount: 1
    m_Data: {fileID: 2093082874, guid: d52376870d025864494fe4563ad60a18, type: 3}
  - m_RefCount: 1
    m_Data: {fileID: 1309540303, guid: d52376870d025864494fe4563ad60a18, type: 3}
  - m_RefCount: 1
    m_Data: {fileID: -1134852076, guid: d52376870d025864494fe4563ad60a18, type: 3}
  - m_RefCount: 1
    m_Data: {fileID: -21607153, guid: d52376870d025864494fe4563ad60a18, type: 3}
  - m_RefCount: 1
    m_Data: {fileID: -171066528, guid: 5814fcf9ccd46b04bab5fefd29abde82, type: 3}
  - m_RefCount: 1
    m_Data: {fileID: -909766213, guid: 5814fcf9ccd46b04bab5fefd29abde82, type: 3}
  - m_RefCount: 1
    m_Data: {fileID: -1363487326, guid: d52376870d025864494fe4563ad60a18, type: 3}
  - m_RefCount: 1
    m_Data: {fileID: -1584128425, guid: d52376870d025864494fe4563ad60a18, type: 3}
  - m_RefCount: 1
    m_Data: {fileID: -27503929, guid: d52376870d025864494fe4563ad60a18, type: 3}
  - m_RefCount: 1
    m_Data: {fileID: -199560084, guid: d52376870d025864494fe4563ad60a18, type: 3}
  - m_RefCount: 1
    m_Data: {fileID: 471522303, guid: d52376870d025864494fe4563ad60a18, type: 3}
  - m_RefCount: 1
    m_Data: {fileID: 1871199629, guid: d52376870d025864494fe4563ad60a18, type: 3}
  - m_RefCount: 1
    m_Data: {fileID: 1112277531, guid: d52376870d025864494fe4563ad60a18, type: 3}
  - m_RefCount: 1
    m_Data: {fileID: -1289854837, guid: d52376870d025864494fe4563ad60a18, type: 3}
  - m_RefCount: 1
    m_Data: {fileID: 1232046331, guid: d52376870d025864494fe4563ad60a18, type: 3}
  - m_RefCount: 1
    m_Data: {fileID: -2004958889, guid: d52376870d025864494fe4563ad60a18, type: 3}
  - m_RefCount: 1
    m_Data: {fileID: 1008222501, guid: d52376870d025864494fe4563ad60a18, type: 3}
  - m_RefCount: 1
    m_Data: {fileID: -1169516820, guid: d52376870d025864494fe4563ad60a18, type: 3}
  - m_RefCount: 1
    m_Data: {fileID: 1908591729, guid: d52376870d025864494fe4563ad60a18, type: 3}
  - m_RefCount: 1
    m_Data: {fileID: 1564600005, guid: d52376870d025864494fe4563ad60a18, type: 3}
  - m_RefCount: 1
    m_Data: {fileID: -1148592989, guid: d52376870d025864494fe4563ad60a18, type: 3}
  - m_RefCount: 1
    m_Data: {fileID: 321488151, guid: d52376870d025864494fe4563ad60a18, type: 3}
  - m_RefCount: 1
    m_Data: {fileID: -1426481542, guid: d52376870d025864494fe4563ad60a18, type: 3}
  - m_RefCount: 1
    m_Data: {fileID: 1349208082, guid: d52376870d025864494fe4563ad60a18, type: 3}
  - m_RefCount: 1
    m_Data: {fileID: -664045763, guid: d52376870d025864494fe4563ad60a18, type: 3}
  - m_RefCount: 1
    m_Data: {fileID: 236921560, guid: d52376870d025864494fe4563ad60a18, type: 3}
  - m_RefCount: 1
    m_Data: {fileID: -1553939790, guid: d52376870d025864494fe4563ad60a18, type: 3}
  - m_RefCount: 1
    m_Data: {fileID: -2093041689, guid: d52376870d025864494fe4563ad60a18, type: 3}
  - m_RefCount: 1
    m_Data: {fileID: -109435006, guid: d52376870d025864494fe4563ad60a18, type: 3}
  - m_RefCount: 1
    m_Data: {fileID: -1756172408, guid: 56c476ed2cb6552469e2930b6920fef5, type: 3}
  - m_RefCount: 1
    m_Data: {fileID: 1334552496, guid: d52376870d025864494fe4563ad60a18, type: 3}
  - m_RefCount: 1
    m_Data: {fileID: 701777744, guid: 56c476ed2cb6552469e2930b6920fef5, type: 3}
  - m_RefCount: 1
    m_Data: {fileID: -80028657, guid: 56c476ed2cb6552469e2930b6920fef5, type: 3}
  - m_RefCount: 1
    m_Data: {fileID: -1977433260, guid: 56c476ed2cb6552469e2930b6920fef5, type: 3}
  - m_RefCount: 1
    m_Data: {fileID: 219289921, guid: 56c476ed2cb6552469e2930b6920fef5, type: 3}
  - m_RefCount: 1
    m_Data: {fileID: 1379511595, guid: 56c476ed2cb6552469e2930b6920fef5, type: 3}
  - m_RefCount: 1
    m_Data: {fileID: -2041087140, guid: 56c476ed2cb6552469e2930b6920fef5, type: 3}
  - m_RefCount: 1
    m_Data: {fileID: -2018152250, guid: 56c476ed2cb6552469e2930b6920fef5, type: 3}
  - m_RefCount: 1
    m_Data: {fileID: -922200881, guid: 56c476ed2cb6552469e2930b6920fef5, type: 3}
  - m_RefCount: 1
    m_Data: {fileID: -249262122, guid: 56c476ed2cb6552469e2930b6920fef5, type: 3}
  - m_RefCount: 1
    m_Data: {fileID: -999819041, guid: 56c476ed2cb6552469e2930b6920fef5, type: 3}
  - m_RefCount: 1
    m_Data: {fileID: -188921927, guid: 56c476ed2cb6552469e2930b6920fef5, type: 3}
  - m_RefCount: 1
    m_Data: {fileID: 25207118, guid: 56c476ed2cb6552469e2930b6920fef5, type: 3}
  - m_RefCount: 1
    m_Data: {fileID: -1512062648, guid: 874f50a12fbd99e42a412fa01a0993bd, type: 3}
  - m_RefCount: 1
    m_Data: {fileID: 1389388188, guid: 874f50a12fbd99e42a412fa01a0993bd, type: 3}
  - m_RefCount: 1
    m_Data: {fileID: -441601825, guid: 80ccc538c289a4049b1628e65e938eeb, type: 3}
  - m_RefCount: 1
    m_Data: {fileID: -1009358902, guid: 5814fcf9ccd46b04bab5fefd29abde82, type: 3}
  - m_RefCount: 1
    m_Data: {fileID: -2014937666, guid: 5814fcf9ccd46b04bab5fefd29abde82, type: 3}
  - m_RefCount: 1
    m_Data: {fileID: -664470594, guid: 5814fcf9ccd46b04bab5fefd29abde82, type: 3}
  - m_RefCount: 1
    m_Data: {fileID: 873771475, guid: 5814fcf9ccd46b04bab5fefd29abde82, type: 3}
  - m_RefCount: 1
    m_Data: {fileID: -1331505233, guid: 5814fcf9ccd46b04bab5fefd29abde82, type: 3}
  - m_RefCount: 1
    m_Data: {fileID: 176269721, guid: 5814fcf9ccd46b04bab5fefd29abde82, type: 3}
  - m_RefCount: 1
    m_Data: {fileID: -53619793, guid: 5814fcf9ccd46b04bab5fefd29abde82, type: 3}
  - m_RefCount: 1
    m_Data: {fileID: 484204980, guid: 5814fcf9ccd46b04bab5fefd29abde82, type: 3}
  - m_RefCount: 1
    m_Data: {fileID: 2019096239, guid: 5814fcf9ccd46b04bab5fefd29abde82, type: 3}
  - m_RefCount: 1
    m_Data: {fileID: 351193176, guid: 5814fcf9ccd46b04bab5fefd29abde82, type: 3}
  - m_RefCount: 1
    m_Data: {fileID: -1176601448, guid: 5814fcf9ccd46b04bab5fefd29abde82, type: 3}
  - m_RefCount: 1
    m_Data: {fileID: 1552296544, guid: 5814fcf9ccd46b04bab5fefd29abde82, type: 3}
  - m_RefCount: 1
    m_Data: {fileID: 1790742185, guid: 5814fcf9ccd46b04bab5fefd29abde82, type: 3}
  - m_RefCount: 1
    m_Data: {fileID: -523695378, guid: 5814fcf9ccd46b04bab5fefd29abde82, type: 3}
  - m_RefCount: 1
    m_Data: {fileID: 1065826432, guid: 5814fcf9ccd46b04bab5fefd29abde82, type: 3}
  - m_RefCount: 1
    m_Data: {fileID: 742628932, guid: 5814fcf9ccd46b04bab5fefd29abde82, type: 3}
  - m_RefCount: 1
    m_Data: {fileID: -797124846, guid: 5814fcf9ccd46b04bab5fefd29abde82, type: 3}
  - m_RefCount: 1
    m_Data: {fileID: 38271580, guid: 5814fcf9ccd46b04bab5fefd29abde82, type: 3}
  - m_RefCount: 1
    m_Data: {fileID: -555233875, guid: 5814fcf9ccd46b04bab5fefd29abde82, type: 3}
  - m_RefCount: 1
    m_Data: {fileID: 1020503459, guid: 5814fcf9ccd46b04bab5fefd29abde82, type: 3}
  - m_RefCount: 1
    m_Data: {fileID: -1283970378, guid: 5814fcf9ccd46b04bab5fefd29abde82, type: 3}
  - m_RefCount: 1
    m_Data: {fileID: -33123374, guid: 5814fcf9ccd46b04bab5fefd29abde82, type: 3}
  - m_RefCount: 1
    m_Data: {fileID: -321462300, guid: 5814fcf9ccd46b04bab5fefd29abde82, type: 3}
  - m_RefCount: 1
    m_Data: {fileID: 206431170, guid: 5814fcf9ccd46b04bab5fefd29abde82, type: 3}
  - m_RefCount: 1
    m_Data: {fileID: 1120161775, guid: 5814fcf9ccd46b04bab5fefd29abde82, type: 3}
  - m_RefCount: 1
    m_Data: {fileID: -499460843, guid: 5814fcf9ccd46b04bab5fefd29abde82, type: 3}
  - m_RefCount: 1
    m_Data: {fileID: 536785208, guid: 5814fcf9ccd46b04bab5fefd29abde82, type: 3}
  - m_RefCount: 1
    m_Data: {fileID: -1116593865, guid: 5814fcf9ccd46b04bab5fefd29abde82, type: 3}
  - m_RefCount: 1
    m_Data: {fileID: 2118812773, guid: 5814fcf9ccd46b04bab5fefd29abde82, type: 3}
  - m_RefCount: 1
    m_Data: {fileID: 1600687180, guid: 5814fcf9ccd46b04bab5fefd29abde82, type: 3}
  - m_RefCount: 1
    m_Data: {fileID: 552752930, guid: 5814fcf9ccd46b04bab5fefd29abde82, type: 3}
  - m_RefCount: 1
    m_Data: {fileID: 898221692, guid: 5814fcf9ccd46b04bab5fefd29abde82, type: 3}
  - m_RefCount: 1
    m_Data: {fileID: 296928551, guid: 5814fcf9ccd46b04bab5fefd29abde82, type: 3}
  - m_RefCount: 1
    m_Data: {fileID: 681113100, guid: 5814fcf9ccd46b04bab5fefd29abde82, type: 3}
  - m_RefCount: 1
    m_Data: {fileID: -139094405, guid: 5814fcf9ccd46b04bab5fefd29abde82, type: 3}
  - m_RefCount: 1
    m_Data: {fileID: -1517770985, guid: 5814fcf9ccd46b04bab5fefd29abde82, type: 3}
  - m_RefCount: 1
    m_Data: {fileID: -846608155, guid: 5814fcf9ccd46b04bab5fefd29abde82, type: 3}
  - m_RefCount: 1
    m_Data: {fileID: -425085450, guid: 5814fcf9ccd46b04bab5fefd29abde82, type: 3}
  - m_RefCount: 1
    m_Data: {fileID: -1112502105, guid: 5814fcf9ccd46b04bab5fefd29abde82, type: 3}
  - m_RefCount: 1
    m_Data: {fileID: -1354341557, guid: 5814fcf9ccd46b04bab5fefd29abde82, type: 3}
  - m_RefCount: 1
    m_Data: {fileID: -722392986, guid: 5814fcf9ccd46b04bab5fefd29abde82, type: 3}
  - m_RefCount: 1
    m_Data: {fileID: 1122823297, guid: 5814fcf9ccd46b04bab5fefd29abde82, type: 3}
  - m_RefCount: 1
    m_Data: {fileID: 2009301593, guid: 5814fcf9ccd46b04bab5fefd29abde82, type: 3}
  - m_RefCount: 1
    m_Data: {fileID: 635688745, guid: 5814fcf9ccd46b04bab5fefd29abde82, type: 3}
  - m_RefCount: 1
    m_Data: {fileID: -865433100, guid: 5814fcf9ccd46b04bab5fefd29abde82, type: 3}
  - m_RefCount: 1
    m_Data: {fileID: 20493685, guid: 5814fcf9ccd46b04bab5fefd29abde82, type: 3}
  - m_RefCount: 1
    m_Data: {fileID: 396620896, guid: 5814fcf9ccd46b04bab5fefd29abde82, type: 3}
  - m_RefCount: 1
    m_Data: {fileID: -74700311, guid: 5814fcf9ccd46b04bab5fefd29abde82, type: 3}
  - m_RefCount: 1
    m_Data: {fileID: -512208134, guid: 5814fcf9ccd46b04bab5fefd29abde82, type: 3}
  - m_RefCount: 1
    m_Data: {fileID: -1911285173, guid: 5814fcf9ccd46b04bab5fefd29abde82, type: 3}
  - m_RefCount: 1
    m_Data: {fileID: 281756410, guid: 5814fcf9ccd46b04bab5fefd29abde82, type: 3}
  - m_RefCount: 1
    m_Data: {fileID: -411255349, guid: 5814fcf9ccd46b04bab5fefd29abde82, type: 3}
  - m_RefCount: 1
    m_Data: {fileID: 217935411, guid: 5814fcf9ccd46b04bab5fefd29abde82, type: 3}
  - m_RefCount: 1
    m_Data: {fileID: -1570255079, guid: 5814fcf9ccd46b04bab5fefd29abde82, type: 3}
  - m_RefCount: 1
    m_Data: {fileID: -1162828179, guid: 5814fcf9ccd46b04bab5fefd29abde82, type: 3}
  - m_RefCount: 1
    m_Data: {fileID: 2099387431, guid: 56c476ed2cb6552469e2930b6920fef5, type: 3}
  - m_RefCount: 1
    m_Data: {fileID: -161582945, guid: 4f75a0cd05d5ae64896ee203f60b935e, type: 3}
  - m_RefCount: 1
    m_Data: {fileID: -1756937179, guid: 56c476ed2cb6552469e2930b6920fef5, type: 3}
  - m_RefCount: 1
    m_Data: {fileID: 403544411, guid: 56c476ed2cb6552469e2930b6920fef5, type: 3}
  - m_RefCount: 1
    m_Data: {fileID: 56780940, guid: 80ccc538c289a4049b1628e65e938eeb, type: 3}
  - m_RefCount: 1
    m_Data: {fileID: -1206917708, guid: d52376870d025864494fe4563ad60a18, type: 3}
  - m_RefCount: 1
    m_Data: {fileID: -2144326344, guid: 147f7b8d1103e304c907e84c771b86e1, type: 3}
  - m_RefCount: 1
    m_Data: {fileID: 1698353671, guid: 147f7b8d1103e304c907e84c771b86e1, type: 3}
  - m_RefCount: 1
    m_Data: {fileID: 21300000, guid: e76ce3efeb332884b8bacbc219956e84, type: 3}
  - m_RefCount: 1
    m_Data: {fileID: 2080889608, guid: 147f7b8d1103e304c907e84c771b86e1, type: 3}
  - m_RefCount: 1
    m_Data: {fileID: 1808212079, guid: 147f7b8d1103e304c907e84c771b86e1, type: 3}
  m_TileMatrixArray:
  - m_RefCount: 129
    m_Data:
      e00: 1
      e01: 0
      e02: 0
      e03: 0
      e10: 0
      e11: 1
      e12: 0
      e13: 0
      e20: 0
      e21: 0
      e22: 1
      e23: 0
      e30: 0
      e31: 0
      e32: 0
      e33: 1
  - m_RefCount: 0
    m_Data:
      e00: 8.6553286e+29
      e01: NaN
      e02: -2.1317331e+19
      e03: 0
      e10: 1.49e-43
      e11: 1e-44
      e12: 4.5905e-41
      e13: 0
      e20: NaN
      e21: 0
      e22: 8.6553165e+29
      e23: 0
      e30: 0
      e31: 7.34684e-40
      e32: 1.49e-43
      e33: 1
  m_TileColorArray:
  - m_RefCount: 129
    m_Data: {r: 1, g: 1, b: 1, a: 1}
  m_TileObjectToInstantiateArray: []
  m_AnimationFrameRate: 1
  m_Color: {r: 1, g: 1, b: 1, a: 1}
  m_Origin: {x: -2, y: -11, z: 0}
  m_Size: {x: 15, y: 19, z: 1}
  m_TileAnchor: {x: 0.5, y: 0.5, z: 0}
  m_TileOrientation: 0
  m_TileOrientationMatrix:
    e00: 1
    e01: 0
    e02: 0
    e03: 0
    e10: 0
    e11: 1
    e12: 0
    e13: 0
    e20: 0
    e21: 0
    e22: 1
    e23: 0
    e30: 0
    e31: 0
    e32: 0
    e33: 1
--- !u!483693784 &574501255144278947
TilemapRenderer:
  m_ObjectHideFlags: 0
  m_CorrespondingSourceObject: {fileID: 0}
  m_PrefabInstance: {fileID: 0}
  m_PrefabAsset: {fileID: 0}
  m_GameObject: {fileID: 1442862307878918204}
  m_Enabled: 1
  m_CastShadows: 0
  m_ReceiveShadows: 0
  m_DynamicOccludee: 0
  m_StaticShadowCaster: 0
  m_MotionVectors: 1
  m_LightProbeUsage: 0
  m_ReflectionProbeUsage: 0
  m_RayTracingMode: 0
  m_RayTraceProcedural: 0
  m_RenderingLayerMask: 1
  m_RendererPriority: 0
  m_Materials:
  - {fileID: 10754, guid: 0000000000000000f000000000000000, type: 0}
  m_StaticBatchInfo:
    firstSubMesh: 0
    subMeshCount: 0
  m_StaticBatchRoot: {fileID: 0}
  m_ProbeAnchor: {fileID: 0}
  m_LightProbeVolumeOverride: {fileID: 0}
  m_ScaleInLightmap: 1
  m_ReceiveGI: 1
  m_PreserveUVs: 0
  m_IgnoreNormalsForChartDetection: 0
  m_ImportantGI: 0
  m_StitchLightmapSeams: 1
  m_SelectedEditorRenderState: 0
  m_MinimumChartSize: 4
  m_AutoUVMaxDistance: 0.5
  m_AutoUVMaxAngle: 89
  m_LightmapParameters: {fileID: 0}
  m_SortingLayerID: 0
  m_SortingLayer: 0
  m_SortingOrder: 0
  m_ChunkSize: {x: 32, y: 32, z: 32}
  m_ChunkCullingBounds: {x: 0, y: 0, z: 0}
  m_MaxChunkCount: 16
  m_MaxFrameAge: 16
  m_SortOrder: 0
  m_Mode: 0
  m_DetectChunkCullingBounds: 0
  m_MaskInteraction: 0
--- !u!1 &7682974829047006596
GameObject:
  m_ObjectHideFlags: 0
  m_CorrespondingSourceObject: {fileID: 0}
  m_PrefabInstance: {fileID: 0}
  m_PrefabAsset: {fileID: 0}
  serializedVersion: 6
  m_Component:
  - component: {fileID: 1634050508032843740}
  - component: {fileID: 2130641233999382970}
  m_Layer: 0
  m_Name: Land
  m_TagString: Untagged
  m_Icon: {fileID: 0}
  m_NavMeshLayer: 0
  m_StaticEditorFlags: 0
  m_IsActive: 1
--- !u!4 &1634050508032843740
Transform:
  m_ObjectHideFlags: 0
  m_CorrespondingSourceObject: {fileID: 0}
  m_PrefabInstance: {fileID: 0}
  m_PrefabAsset: {fileID: 0}
  m_GameObject: {fileID: 7682974829047006596}
  m_LocalRotation: {x: 0, y: 0, z: 0, w: 1}
  m_LocalPosition: {x: 0, y: 0, z: 0}
  m_LocalScale: {x: 1, y: 1, z: 1}
  m_ConstrainProportionsScale: 0
  m_Children:
  - {fileID: 5267913103256976142}
  m_Father: {fileID: 0}
  m_RootOrder: 0
  m_LocalEulerAnglesHint: {x: 0, y: 0, z: 0}
--- !u!156049354 &2130641233999382970
Grid:
  m_ObjectHideFlags: 0
  m_CorrespondingSourceObject: {fileID: 0}
  m_PrefabInstance: {fileID: 0}
  m_PrefabAsset: {fileID: 0}
  m_GameObject: {fileID: 7682974829047006596}
  m_Enabled: 1
  m_CellSize: {x: 1, y: 1, z: 0}
  m_CellGap: {x: 0, y: 0, z: 0}
  m_CellLayout: 0
  m_CellSwizzle: 0
--- !u!114 &7752205840645675473
MonoBehaviour:
  m_ObjectHideFlags: 0
  m_CorrespondingSourceObject: {fileID: 0}
  m_PrefabInstance: {fileID: 0}
  m_PrefabAsset: {fileID: 0}
  m_GameObject: {fileID: 0}
  m_Enabled: 1
  m_EditorHideFlags: 0
  m_Script: {fileID: 12395, guid: 0000000000000000e000000000000000, type: 0}
  m_Name: Palette Settings
  m_EditorClassIdentifier: 
  cellSizing: 0
  m_TransparencySortMode: 0
  m_TransparencySortAxis: {x: 0, y: 0, z: 1}
