%YAML 1.1
%TAG !u! tag:unity3d.com,2011:
--- !u!1045 &1
EditorBuildSettings:
  m_ObjectHideFlags: 0
  serializedVersion: 2
  m_Scenes:
  - enabled: 1
    path: Assets/Scenes/StartMenuScene.unity
    guid: cbde1b66612f8164e9ee53f0b4748d83
  - enabled: 1
    path: Assets/Scenes/PlayScene.unity
    guid: dff18960e808fb34e915b73c9f73573d
  - enabled: 1
    path: Assets/Scenes/HTPScene.unity
    guid: 9c030c374d0ae7443845265b3292ece1
  - enabled: 1
    path: Assets/Scenes/SettingMenuScene.unity
    guid: ce5694131f1b0fe48a299c8d038e7a5c
  - enabled: 1
    path: Assets/Scenes/CreditScene.unity
    guid: 4dbbde5444dc4454bac3c6b124c7df37
  - enabled: 1
    path: Assets/Scenes/LoseScene.unity
    guid: 2cda990e2423bbf4892e6590ba056729
  - enabled: 1
    path: Assets/Scenes/TimeRecordScene.unity
    guid: 6a8b7b7cbcced8a47926be1384b16552
  m_configObjects: {}
